module gitlab.com/knottos/cell-observability-bootstrap/v2

go 1.22.0

toolchain go1.22.3

require (
	dario.cat/mergo v1.0.0 // indirect
	github.com/Azure/azure-sdk-for-go/sdk/azcore v1.12.0 // indirect
	github.com/Azure/azure-sdk-for-go/sdk/azidentity v1.6.0 // indirect
	github.com/Azure/azure-sdk-for-go/sdk/internal v1.9.0 // indirect
	github.com/AzureAD/microsoft-authentication-library-for-go v1.2.2 // indirect
	github.com/alecthomas/units v0.0.0-20231202071711-9a357b53e9c9 // indirect
	github.com/asaskevich/govalidator v0.0.0-20230301143203-a9d515a09cc2 // indirect
	github.com/aws/aws-sdk-go v1.54.5 // indirect
	github.com/beorn7/perks v1.0.1 // indirect
	github.com/cespare/xxhash/v2 v2.3.0 // indirect
	github.com/davecgh/go-spew v1.1.2-0.20180830191138-d8f796af33cc // indirect
	github.com/dennwc/varint v1.0.0 // indirect
	github.com/edsrzf/mmap-go v1.1.0 // indirect
	github.com/emicklei/go-restful/v3 v3.12.1 // indirect
	github.com/facette/natsort v0.0.0-20181210072756-2cd4dd1e2dcb // indirect
	github.com/go-kit/log v0.2.1 // indirect
	github.com/go-logfmt/logfmt v0.6.0 // indirect
	github.com/go-logr/logr v1.4.2 // indirect
	github.com/go-logr/stdr v1.2.2 // indirect
	github.com/go-openapi/analysis v0.23.0 // indirect
	github.com/go-openapi/errors v0.22.0 // indirect
	github.com/go-openapi/jsonpointer v0.21.0 // indirect
	github.com/go-openapi/jsonreference v0.21.0 // indirect
	github.com/go-openapi/loads v0.22.0 // indirect
	github.com/go-openapi/spec v0.21.0 // indirect
	github.com/go-openapi/strfmt v0.23.0 // indirect
	github.com/go-openapi/swag v0.23.0 // indirect
	github.com/go-openapi/validate v0.24.0 // indirect
	github.com/gogo/protobuf v1.3.2 // indirect
	github.com/golang-jwt/jwt/v5 v5.2.1 // indirect
	github.com/golang/protobuf v1.5.4 // indirect
	github.com/google/gnostic-models v0.6.8 // indirect
	github.com/google/gofuzz v1.2.0 // indirect
	github.com/google/uuid v1.6.0 // indirect
	github.com/grafana/regexp v0.0.0-20240518133315-a468a5bfb3bc // indirect
	github.com/imdario/mergo v0.3.16 // indirect
	github.com/jmespath/go-jmespath v0.4.0 // indirect
	github.com/josharian/intern v1.0.0 // indirect
	github.com/jpillora/backoff v1.0.0 // indirect
	github.com/json-iterator/go v1.1.12 // indirect
	github.com/kylelemons/godebug v1.1.0 // indirect
	github.com/mailru/easyjson v0.7.7 // indirect
	github.com/mitchellh/mapstructure v1.5.0 // indirect
	github.com/modern-go/concurrent v0.0.0-20180306012644-bacd9c7ef1dd // indirect
	github.com/modern-go/reflect2 v1.0.2 // indirect
	github.com/munnerz/goautoneg v0.0.0-20191010083416-a7dc8b61c822 // indirect
	github.com/mwitkow/go-conntrack v0.0.0-20190716064945-2f068394615f // indirect
	github.com/oklog/ulid v1.3.1 // indirect
	github.com/pkg/browser v0.0.0-20240102092130-5ac0b6a4141c // indirect
	github.com/prometheus-operator/prometheus-operator/pkg/apis/monitoring v0.74.0 // indirect
	github.com/prometheus-operator/prometheus-operator/pkg/client v0.74.0 // indirect
	github.com/prometheus/alertmanager v0.27.0 // indirect
	github.com/prometheus/client_golang v1.19.1 // indirect
	github.com/prometheus/client_model v0.6.1 // indirect
	github.com/prometheus/common v0.54.0 // indirect
	github.com/prometheus/common/sigv4 v0.1.0 // indirect
	github.com/prometheus/procfs v0.15.1 // indirect
	github.com/prometheus/prometheus v0.53.0 // indirect
	github.com/spf13/pflag v1.0.5 // indirect
	go.mongodb.org/mongo-driver v1.15.1 // indirect
	go.opentelemetry.io/otel v1.27.0 // indirect
	go.opentelemetry.io/otel/metric v1.27.0 // indirect
	go.opentelemetry.io/otel/trace v1.27.0 // indirect
	go.uber.org/atomic v1.11.0 // indirect
	golang.org/x/crypto v0.24.0 // indirect
	golang.org/x/net v0.26.0 // indirect
	golang.org/x/oauth2 v0.21.0 // indirect
	golang.org/x/sync v0.7.0 // indirect
	golang.org/x/sys v0.21.0 // indirect
	golang.org/x/term v0.21.0 // indirect
	golang.org/x/text v0.16.0 // indirect
	golang.org/x/time v0.5.0 // indirect
	google.golang.org/protobuf v1.34.2 // indirect
	gopkg.in/inf.v0 v0.9.1 // indirect
	gopkg.in/yaml.v2 v2.4.0 // indirect
	gopkg.in/yaml.v3 v3.0.1 // indirect
	k8s.io/api v0.30.2 // indirect
	k8s.io/apiextensions-apiserver v0.29.5 // indirect
	k8s.io/apimachinery v0.30.2 // indirect
	k8s.io/client-go v0.30.2 // indirect
	k8s.io/klog/v2 v2.130.1 // indirect
	k8s.io/kube-openapi v0.0.0-20240620174524-b456828f718b // indirect
	k8s.io/utils v0.0.0-20240502163921-fe8a2dddb1d0 // indirect
	sigs.k8s.io/controller-runtime v0.17.2 // indirect
	sigs.k8s.io/json v0.0.0-20221116044647-bc3834ca7abd // indirect
	sigs.k8s.io/structured-merge-diff/v4 v4.4.1 // indirect
	sigs.k8s.io/yaml v1.4.0 // indirect
)
